{
    "variable": [
        {
            "id": "baseUrl",
            "key": "baseUrl",
            "type": "string",
            "name": "string",
            "value": "http:\/\/localhost:8000"
        }
    ],
    "info": {
        "name": "News Api Docs",
        "_postman_id": "a715e076-a427-44fe-ba65-e5588978db02",
        "description": "news aggregator API",
        "schema": "https:\/\/schema.getpostman.com\/json\/collection\/v2.1.0\/collection.json"
    },
    "item": [
        {
            "name": "Articles",
            "description": "",
            "item": [
                {
                    "name": "Display a listing of the resource.",
                    "request": {
                        "url": {
                            "host": "{{baseUrl}}",
                            "path": "api\/articles",
                            "query": [
                                {
                                    "key": "per_page",
                                    "value": "10",
                                    "description": "The number of results per page. Defaults to 10.",
                                    "disabled": false
                                },
                                {
                                    "key": "page",
                                    "value": "1",
                                    "description": "The page number. Defaults to 1.",
                                    "disabled": false
                                },
                                {
                                    "key": "keyword",
                                    "value": "Sport",
                                    "description": "Search keyword for title or content.",
                                    "disabled": false
                                },
                                {
                                    "key": "start_date",
                                    "value": "2024-01-01",
                                    "description": "The start date for filtering articles. Format: YYYY-MM-DD.",
                                    "disabled": false
                                },
                                {
                                    "key": "end_date",
                                    "value": "2024-12-31",
                                    "description": "The end date for filtering articles. Format: YYYY-MM-DD.",
                                    "disabled": false
                                },
                                {
                                    "key": "category",
                                    "value": "Technology",
                                    "description": "The category name to filter articles by.",
                                    "disabled": false
                                },
                                {
                                    "key": "source",
                                    "value": "TechCrunch",
                                    "description": "The source name to filter articles by.",
                                    "disabled": false
                                }
                            ],
                            "raw": "{{baseUrl}}\/api\/articles?per_page=10&page=1&keyword=Sport&start_date=2024-01-01&end_date=2024-12-31&category=Technology&source=TechCrunch"
                        },
                        "method": "GET",
                        "header": [
                            {
                                "key": "Authorization",
                                "value": "string The Bearer token used for authentication. Example: Bearer <your token>"
                            },
                            {
                                "key": "Content-Type",
                                "value": "application\/json"
                            },
                            {
                                "key": "Accept",
                                "value": "application\/json"
                            }
                        ],
                        "body": null,
                        "description": "",
                        "auth": {
                            "type": "noauth"
                        }
                    },
                    "response": [
                        {
                            "header": [],
                            "code": 200,
                            "body": "{\n  \"data\": [\n    {\n      \"id\": 1,\n      \"title\": \"Article Title\",\n      \"content\": \"Article content here.\",\n      \"published_at\": \"2024-01-01T00:00:00Z\",\n      \"source_name\": \"TechCrunch\",\n      \"category\": {\n        \"name\": \"Technology\"\n      }\n    }\n  ],\n  \"meta\": {\n    \"total\": 100,\n    \"per_page\": 10,\n    \"current_page\": 1,\n    \"last_page\": 10\n  }\n}",
                            "name": ""
                        }
                    ]
                },
                {
                    "name": "Display the specified resource.",
                    "request": {
                        "url": {
                            "host": "{{baseUrl}}",
                            "path": "api\/articles\/:id",
                            "query": [],
                            "raw": "{{baseUrl}}\/api\/articles\/:id",
                            "variable": [
                                {
                                    "id": "id",
                                    "key": "id",
                                    "value": "1",
                                    "description": "The ID of the article."
                                }
                            ]
                        },
                        "method": "GET",
                        "header": [
                            {
                                "key": "Content-Type",
                                "value": "application\/json"
                            },
                            {
                                "key": "Accept",
                                "value": "application\/json"
                            }
                        ],
                        "body": null,
                        "description": "",
                        "auth": {
                            "type": "noauth"
                        }
                    },
                    "response": [
                        {
                            "header": [],
                            "code": 200,
                            "body": "{\n  \"id\": 1,\n  \"title\": \"Article Title\",\n  \"content\": \"Article content here.\",\n  \"published_at\": \"2024-01-01T00:00:00Z\",\n  \"source_name\": \"TechCrunch\",\n  \"category\": {\n    \"name\": \"Technology\"\n  }\n}",
                            "name": ""
                        },
                        {
                            "header": [],
                            "code": 404,
                            "body": "{\n  \"message\": \"Resource not found\"\n}",
                            "name": ""
                        }
                    ]
                }
            ]
        },
        {
            "name": "Authentication",
            "description": "",
            "item": [
                {
                    "name": "Generate an authentication token.",
                    "request": {
                        "url": {
                            "host": "{{baseUrl}}",
                            "path": "api\/auth\/token",
                            "query": [],
                            "raw": "{{baseUrl}}\/api\/auth\/token"
                        },
                        "method": "POST",
                        "header": [
                            {
                                "key": "Content-Type",
                                "value": "application\/json"
                            },
                            {
                                "key": "Accept",
                                "value": "application\/json"
                            }
                        ],
                        "body": {
                            "mode": "raw",
                            "raw": "{\"email\":\"john.doe@example.com\",\"password\":\"password123\"}"
                        },
                        "description": "",
                        "auth": {
                            "type": "noauth"
                        }
                    },
                    "response": [
                        {
                            "header": [],
                            "code": 200,
                            "body": "{\n  \"token\": \"eyJ0eXAiOiJKV1QiLCJhbGciOiJIUzI1NiJ9...\"\n}",
                            "name": ""
                        },
                        {
                            "header": [],
                            "code": 422,
                            "body": "{\n  \"message\": \"The provided credentials are incorrect.\",\n  \"errors\": {\n    \"email\": [\"The provided credentials are incorrect.\"]\n  }\n}",
                            "name": ""
                        }
                    ]
                },
                {
                    "name": "Register a new user.",
                    "request": {
                        "url": {
                            "host": "{{baseUrl}}",
                            "path": "api\/register",
                            "query": [],
                            "raw": "{{baseUrl}}\/api\/register"
                        },
                        "method": "POST",
                        "header": [
                            {
                                "key": "Content-Type",
                                "value": "application\/json"
                            },
                            {
                                "key": "Accept",
                                "value": "application\/json"
                            }
                        ],
                        "body": {
                            "mode": "raw",
                            "raw": "{\"name\":\"John Doe\",\"email\":\"john.doe@example.com\",\"password\":\"password123\",\"password_confirmation\":\"password123\"}"
                        },
                        "description": "",
                        "auth": {
                            "type": "noauth"
                        }
                    },
                    "response": [
                        {
                            "header": [],
                            "code": 200,
                            "body": "{\n  \"message\": \"User registered successfully\"\n}",
                            "name": ""
                        }
                    ]
                }
            ]
        },
        {
            "name": "Endpoints",
            "description": "",
            "item": [
                {
                    "name": "GET api\/user",
                    "request": {
                        "url": {
                            "host": "{{baseUrl}}",
                            "path": "api\/user",
                            "query": [],
                            "raw": "{{baseUrl}}\/api\/user"
                        },
                        "method": "GET",
                        "header": [
                            {
                                "key": "Content-Type",
                                "value": "application\/json"
                            },
                            {
                                "key": "Accept",
                                "value": "application\/json"
                            }
                        ],
                        "body": null,
                        "description": "",
                        "auth": {
                            "type": "noauth"
                        }
                    },
                    "response": [
                        {
                            "header": [
                                {
                                    "key": "cache-control",
                                    "value": "no-cache, private"
                                },
                                {
                                    "key": "content-type",
                                    "value": "application\/json"
                                },
                                {
                                    "key": "access-control-allow-origin",
                                    "value": "*"
                                }
                            ],
                            "code": 401,
                            "body": "{\"message\":\"Unauthenticated.\"}",
                            "name": ""
                        }
                    ]
                }
            ]
        },
        {
            "name": "Password Reset",
            "description": "",
            "item": [
                {
                    "name": "Send a password reset link to the user's email.",
                    "request": {
                        "url": {
                            "host": "{{baseUrl}}",
                            "path": "api\/forgot-password",
                            "query": [],
                            "raw": "{{baseUrl}}\/api\/forgot-password"
                        },
                        "method": "POST",
                        "header": [
                            {
                                "key": "Content-Type",
                                "value": "application\/json"
                            },
                            {
                                "key": "Accept",
                                "value": "application\/json"
                            }
                        ],
                        "body": {
                            "mode": "raw",
                            "raw": "{\"email\":\"john.doe@example.com\"}"
                        },
                        "description": "",
                        "auth": {
                            "type": "noauth"
                        }
                    },
                    "response": [
                        {
                            "header": [],
                            "code": 200,
                            "body": "{\n  \"message\": \"Password reset link sent to your email.\"\n}",
                            "name": ""
                        },
                        {
                            "header": [],
                            "code": 500,
                            "body": "{\n  \"message\": \"Failed to send password reset link.\"\n}",
                            "name": ""
                        }
                    ]
                },
                {
                    "name": "Reset the user's password.",
                    "request": {
                        "url": {
                            "host": "{{baseUrl}}",
                            "path": "api\/reset-password",
                            "query": [],
                            "raw": "{{baseUrl}}\/api\/reset-password"
                        },
                        "method": "POST",
                        "header": [
                            {
                                "key": "Content-Type",
                                "value": "application\/json"
                            },
                            {
                                "key": "Accept",
                                "value": "application\/json"
                            }
                        ],
                        "body": {
                            "mode": "raw",
                            "raw": "{\"token\":\"aBcDeFg12345\",\"email\":\"john.doe@example.com\",\"password\":\"newpassword123\",\"password_confirmation\":\"newpassword123\"}"
                        },
                        "description": "",
                        "auth": {
                            "type": "noauth"
                        }
                    },
                    "response": [
                        {
                            "header": [],
                            "code": 200,
                            "body": "{\n  \"message\": \"Password reset successfully.\"\n}",
                            "name": ""
                        },
                        {
                            "header": [],
                            "code": 500,
                            "body": "{\n  \"message\": \"Password reset failed.\"\n}",
                            "name": ""
                        }
                    ]
                }
            ]
        },
        {
            "name": "Personalized Feed",
            "description": "",
            "item": [
                {
                    "name": "Get the personalized feed of articles based on user preferences.",
                    "request": {
                        "url": {
                            "host": "{{baseUrl}}",
                            "path": "api\/users\/feed",
                            "query": [],
                            "raw": "{{baseUrl}}\/api\/users\/feed"
                        },
                        "method": "GET",
                        "header": [
                            {
                                "key": "Authorization",
                                "value": "string The Bearer token used for authentication. Example: Bearer <token>"
                            },
                            {
                                "key": "Content-Type",
                                "value": "application\/json"
                            },
                            {
                                "key": "Accept",
                                "value": "application\/json"
                            }
                        ],
                        "body": null,
                        "description": "",
                        "auth": {
                            "type": "noauth"
                        }
                    },
                    "response": [
                        {
                            "header": [],
                            "code": 200,
                            "body": "{\n  \"data\": [\n    {\n      \"id\": 1,\n      \"title\": \"Article Title\",\n      \"content\": \"Article content here.\",\n      \"published_at\": \"2024-01-01T00:00:00Z\",\n      \"source_name\": \"TechCrunch\",\n      \"category\": {\n        \"name\": \"Technology\"\n      },\n      \"author\": {\n        \"name\": \"John Doe\"\n      }\n    }\n  ]\n}",
                            "name": ""
                        },
                        {
                            "header": [],
                            "code": 404,
                            "body": "{\n  \"message\": \"No personalized feed available\"\n}",
                            "name": ""
                        }
                    ]
                }
            ]
        },
        {
            "name": "User Preferences",
            "description": "",
            "item": [
                {
                    "name": "Set user preferences for sources, categories, and authors.",
                    "request": {
                        "url": {
                            "host": "{{baseUrl}}",
                            "path": "api\/users\/preferences",
                            "query": [],
                            "raw": "{{baseUrl}}\/api\/users\/preferences"
                        },
                        "method": "POST",
                        "header": [
                            {
                                "key": "Authorization",
                                "value": "string The Bearer token used for authentication. Example: Bearer <token>"
                            },
                            {
                                "key": "Content-Type",
                                "value": "application\/json"
                            },
                            {
                                "key": "Accept",
                                "value": "application\/json"
                            }
                        ],
                        "body": {
                            "mode": "raw",
                            "raw": "{\"sources\":\"[\\\"TechCrunch\\\", \\\"Wired\\\"]\",\"categories\":\"[\\\"Technology\\\", \\\"Science\\\"]\",\"authors\":\"[\\\"John Doe\\\", \\\"Jane Smith\\\"]\"}"
                        },
                        "description": "",
                        "auth": {
                            "type": "noauth"
                        }
                    },
                    "response": [
                        {
                            "header": [],
                            "code": 200,
                            "body": "{\n  \"message\": \"Preferences updated successfully\"\n}",
                            "name": ""
                        },
                        {
                            "header": [],
                            "code": 422,
                            "body": "{\n  \"message\": \"The sources field must be an array.\",\n  \"errors\": {\n    \"sources\": [\n      \"The sources field must be an array.\"\n    ]\n  }\n}",
                            "name": ""
                        }
                    ]
                },
                {
                    "name": "Get the current user preferences.",
                    "request": {
                        "url": {
                            "host": "{{baseUrl}}",
                            "path": "api\/users\/preferences",
                            "query": [],
                            "raw": "{{baseUrl}}\/api\/users\/preferences"
                        },
                        "method": "GET",
                        "header": [
                            {
                                "key": "Authorization",
                                "value": "string The Bearer token used for authentication. Example: Bearer <token>"
                            },
                            {
                                "key": "Content-Type",
                                "value": "application\/json"
                            },
                            {
                                "key": "Accept",
                                "value": "application\/json"
                            }
                        ],
                        "body": null,
                        "description": "",
                        "auth": {
                            "type": "noauth"
                        }
                    },
                    "response": [
                        {
                            "header": [],
                            "code": 200,
                            "body": "{\n  \"sources\": [\"TechCrunch\", \"Wired\"],\n  \"categories\": [\"Technology\", \"Science\"],\n  \"authors\": [\"John Doe\", \"Jane Smith\"]\n}",
                            "name": ""
                        }
                    ]
                }
            ]
        }
    ],
    "auth": {
        "type": "noauth"
    }
}