name: Articles
description: ''
endpoints:
  -
    httpMethods:
      - GET
    uri: api/articles
    metadata:
      groupName: Articles
      groupDescription: ''
      subgroup: ''
      subgroupDescription: ''
      title: 'Display a listing of the resource.'
      description: ''
      authenticated: false
      custom: []
    headers:
      Authorization: 'string The Bearer token used for authentication. Example: Bearer <your token>'
      Content-Type: application/json
      Accept: application/json
    urlParameters: []
    cleanUrlParameters: []
    queryParameters:
      per_page:
        name: per_page
        description: 'The number of results per page. Defaults to 10.'
        required: false
        example: 10
        type: integer
        enumValues: []
        exampleWasSpecified: true
        nullable: false
        custom: []
      page:
        name: page
        description: 'The page number. Defaults to 1.'
        required: false
        example: 1
        type: integer
        enumValues: []
        exampleWasSpecified: true
        nullable: false
        custom: []
      keyword:
        name: keyword
        description: 'Search keyword for title or content.'
        required: false
        example: Sport
        type: string
        enumValues: []
        exampleWasSpecified: true
        nullable: false
        custom: []
      start_date:
        name: start_date
        description: 'The start date for filtering articles. Format: YYYY-MM-DD.'
        required: false
        example: '2024-01-01'
        type: string
        enumValues: []
        exampleWasSpecified: true
        nullable: false
        custom: []
      end_date:
        name: end_date
        description: 'The end date for filtering articles. Format: YYYY-MM-DD.'
        required: false
        example: '2024-12-31'
        type: string
        enumValues: []
        exampleWasSpecified: true
        nullable: false
        custom: []
      category:
        name: category
        description: 'The category name to filter articles by.'
        required: false
        example: Technology
        type: string
        enumValues: []
        exampleWasSpecified: true
        nullable: false
        custom: []
      source:
        name: source
        description: 'The source name to filter articles by.'
        required: false
        example: TechCrunch
        type: string
        enumValues: []
        exampleWasSpecified: true
        nullable: false
        custom: []
    cleanQueryParameters:
      per_page: 10
      page: 1
      keyword: Sport
      start_date: '2024-01-01'
      end_date: '2024-12-31'
      category: Technology
      source: TechCrunch
    bodyParameters: []
    cleanBodyParameters: []
    fileParameters: []
    responses:
      -
        status: 200
        content: |-
          {
            "data": [
              {
                "id": 1,
                "title": "Article Title",
                "content": "Article content here.",
                "published_at": "2024-01-01T00:00:00Z",
                "source_name": "TechCrunch",
                "category": {
                  "name": "Technology"
                }
              }
            ],
            "meta": {
              "total": 100,
              "per_page": 10,
              "current_page": 1,
              "last_page": 10
            }
          }
        headers: []
        description: ''
        custom: []
    responseFields: []
    auth: []
    controller: null
    method: null
    route: null
    custom: []
  -
    httpMethods:
      - GET
    uri: 'api/articles/{id}'
    metadata:
      groupName: Articles
      groupDescription: ''
      subgroup: ''
      subgroupDescription: ''
      title: 'Display the specified resource.'
      description: ''
      authenticated: false
      custom: []
    headers:
      Content-Type: application/json
      Accept: application/json
    urlParameters:
      id:
        name: id
        description: 'The ID of the article.'
        required: false
        example: 1
        type: integer
        enumValues: []
        exampleWasSpecified: true
        nullable: false
        custom: []
    cleanUrlParameters:
      id: 1
    queryParameters: []
    cleanQueryParameters: []
    bodyParameters: []
    cleanBodyParameters: []
    fileParameters: []
    responses:
      -
        status: 200
        content: |-
          {
            "id": 1,
            "title": "Article Title",
            "content": "Article content here.",
            "published_at": "2024-01-01T00:00:00Z",
            "source_name": "TechCrunch",
            "category": {
              "name": "Technology"
            }
          }
        headers: []
        description: ''
        custom: []
      -
        status: 404
        content: |-
          {
            "message": "Resource not found"
          }
        headers: []
        description: ''
        custom: []
    responseFields: []
    auth: []
    controller: null
    method: null
    route: null
    custom: []
